{
	"metadata": {
		"version": 4.6,
		"type": "Object",
		"generator": "Object3D.toJSON"
	},
	"geometries": [
		{
			"uuid": "c0655198-72ff-4fa8-a037-cdc03121e6f1",
			"type": "TorusKnotGeometry",
			"radius": 1,
			"tube": 0.4,
			"tubularSegments": 64,
			"radialSegments": 8,
			"p": 2,
			"q": 3
		}],
	"materials": [
		{
			"uuid": "5e3ca11e-c610-418c-be2f-fb2da7f3f772",
			"type": "MeshStandardMaterial",
			"color": 16777215,
			"roughness": 1,
			"metalness": 0,
			"emissive": 0,
			"envMapIntensity": 1,
			"blendColor": 0
		}],
	"object": {
		"uuid": "399bd86f-10aa-4c2b-bb91-34fa6b311d64",
		"type": "Scene",
		"name": "Scene",
		"layers": 1,
		"matrix": [1,0,0,0,0,1,0,0,0,0,1,0,0,0,0,1],
		"up": [0,1,0],
		"children": [
			{
				"uuid": "abc96a2d-b27d-4815-bea5-5f87906a9bda",
				"type": "Mesh",
				"name": "TorusKnot",
				"layers": 1,
				"matrix": [1,0,0,0,0,1,0,0,0,0,1,0,0,0,0,1],
				"up": [0,1,0],
				"geometry": "c0655198-72ff-4fa8-a037-cdc03121e6f1",
				"material": "5e3ca11e-c610-418c-be2f-fb2da7f3f772"
			},
			{
				"uuid": "a074a60d-d6be-4dbc-a308-63e3a3c65a0e",
				"type": "HemisphereLight",
				"name": "HemisphereLight",
				"layers": 1,
				"matrix": [1,0,0,0,0,1,0,0,0,0,1,0,0,10,0,1],
				"up": [0,1,0],
				"color": 43775,
				"intensity": 1,
				"groundColor": 16755200
			},
			{
				"uuid": "906be499-b399-4cbe-ad23-3a904028b00e",
				"type": "AmbientLight",
				"name": "AmbientLight",
				"layers": 1,
				"matrix": [1,0,0,0,0,1,0,0,0,0,1,0,0,0,0,1],
				"up": [0,1,0],
				"color": 2236962,
				"intensity": 1
			},
			{
				"uuid": "5cdc03b0-0657-4c3d-9187-8e649149f091",
				"type": "DirectionalLight",
				"name": "DirectionalLight",
				"layers": 1,
				"matrix": [1,0,0,0,0,1,0,0,0,0,1,0,5,10,7.5,1],
				"up": [0,1,0],
				"color": 16777215,
				"intensity": 1,
				"shadow": {
					"camera": {
						"uuid": "2144e6a9-9790-45a5-8c73-f4aa2328911d",
						"type": "OrthographicCamera",
						"layers": 1,
						"up": [0,1,0],
						"zoom": 1,
						"left": -5,
						"right": 5,
						"top": 5,
						"bottom": -5,
						"near": 0.5,
						"far": 500
					}
				}
			}]
	}
}